{
  "name": "dnd4e",
  "title": "DnD4e - Fourth Edition System (Ronce edit)",
  "description": "A system for playing the fourth edition of the worlds most popular roleplaying game in the Foundry Virtual Tabletop environment.",
  "version": 0.06,
  "author": "Picos",
  "scripts": [],
  "esmodules": ["dnd4e.js"],
  "styles": ["dnd4e.css"],
  "packs": [
    {
      "name": "heroes",
      "label": "Starter Heroes",
      "system": "dnd4e",
      "path": "./packs/heroes.db",
      "entity": "Actor"
    },
    {
      "name": "monsters",
      "label": "Monsters (SRD)",
      "system": "dnd4e",
      "path": "./packs/monsters.db",
      "entity": "Actor"
    },
    {
      "name": "items",
      "label": "Items (SRD)",
      "system": "dnd4e",
      "path": "./packs/items.db",
      "entity": "Item"
    },
    {
      "name": "tradegoods",
      "label": "Trade Goods (SRD)",
      "system": "dnd4e",
      "path": "./packs/tradegoods.db",
      "entity": "Item"
    },
    {
      "name": "spells",
      "label": "Spells (SRD)",
      "system": "dnd4e",
      "path": "./packs/spells.db",
      "entity": "Item"
    },
    {
      "name": "classes",
      "label": "Classes (SRD)",
      "system": "dnd4e",
      "path": "./packs/classes.db",
      "entity": "Item"
    },
    {
      "name": "classfeatures",
      "label": "Class Features (SRD)",
      "system": "dnd4e",
      "path": "./packs/classfeatures.db",
      "entity": "Item"
    },
    {
      "name": "races",
      "label": "Racial Features (SRD)",
      "system": "dnd4e",
      "path": "./packs/races.db",
      "entity": "Item"
    },
    {
      "name": "monsterfeatures",
      "label": "Monster Features (SRD)",
      "system": "dnd4e",
      "path": "./packs/monsterfeatures.db",
      "entity": "Item"
    },
    {
      "name": "rules",
      "label": "Rules (SRD)",
      "system": "dnd4e",
      "path": "./packs/rules.db",
      "entity": "JournalEntry"
    }
  ],
  "languages": [
    {
      "lang": "en",
      "name": "English",
      "path": "lang/en.json"
    }
  ],
  "socket": true,
  "gridDistance": 5,
  "gridUnits": "ft",
  "primaryTokenAttribute": "attributes.hp",
  "secondaryTokenAttribute": null,
  "minimumCoreVersion": "0.5.6",
  "compatibleCoreVersion": "0.7.2",
  "url": "https://gitlab.com/Picos/foundryvtt-dnd4e",
  "manifest": "https://gitlab.com/Picos/foundryvtt-dnd4e/raw/master/system.json",
  "download": "https://gitlab.com/Picos/foundryvtt-dnd4e/-/archive/release-0.0.6/foundryvtt-dnd4e-release-0.0.6.zip"
}
